{
  "prepare_queue": {
    "installed": [],
    "uninstalled": []
  },
  "config_munge": {
    "files": {}
  },
  "installed_plugins": {
    "cordova-plugin-device": {
      "PACKAGE_NAME": "br.com.sabium.appinfo"
    },
    "cordova-plugin-device-motion": {
      "PACKAGE_NAME": "br.com.sabium.appinfo"
    },
    "cordova-plugin-network-information": {
      "PACKAGE_NAME": "br.com.sabium.appinfo"
    },
    "cordova-plugin-whitelist": {
      "PACKAGE_NAME": "br.com.sabium.appinfo"
    },
    "cordova-plugin-media": {
      "PACKAGE_NAME": "br.com.sabium.appinfo"
    }
  },
  "dependent_plugins": {
    "cordova-plugin-file": {
      "PACKAGE_NAME": "br.com.sabium.appinfo"
    }
  }
}